…
``` r
tbl_df(hci)# A nicer view of the data as a table 
```

    ## # A tibble: 303 x 14
    ##      age sex      cp trestbps  chol   fbs restecg thalach exang oldpeak
    ##    <int> <chr> <int>    <int> <int> <int>   <int>   <int> <int>   <dbl>
    ##  1    63 Male      3      145   233     1       0     150     0     2.3
    ##  2    37 Male      2      130   250     0       1     187     0     3.5
    ##  3    41 Fema~     1      130   204     0       0     172     0     1.4
    ##  4    56 Male      1      120   236     0       1     178     0     0.8
    ##  5    57 Fema~     0      120   354     0       1     163     1     0.6
    ##  6    57 Male      0      140   192     0       1     148     0     0.4
    ##  7    56 Fema~     1      140   294     0       0     153     0     1.3
    ##  8    44 Male      1      120   263     0       1     173     0     0  
    ##  9    52 Male      2      172   199     1       1     162     0     0.5
    ## 10    57 Male      2      150   168     0       1     174     0     1.6
    ## # ... with 293 more rows, and 4 more variables: slope <int>, ca <int>,
    ## #   thal <int>, target <int>
…
